%YAML 1.1
%TAG !u! tag:unity3d.com,2011:
--- !u!114 &11400000
MonoBehaviour:
  m_ObjectHideFlags: 0
  m_CorrespondingSourceObject: {fileID: 0}
  m_PrefabInstance: {fileID: 0}
  m_PrefabAsset: {fileID: 0}
  m_GameObject: {fileID: 0}
  m_Enabled: 1
  m_EditorHideFlags: 0
  m_Script: {fileID: 11500000, guid: 9072435fe8edc204b98db76698e013eb, type: 3}
  m_Name: Green
  m_EditorClassIdentifier: 
  _image: {fileID: 21300000, guid: 8e7edf82e5c274c7994f1bafe146717b, type: 3}
  _createEffect: {fileID: 0}
  _destroyEffect: {fileID: 1957330277183174, guid: 91ebeeefcc9a44179969546b784c155f,
    type: 3}
  _createAudioClip: {fileID: 0}
  _destroyAudioClip: {fileID: 0}
  _clickAudioClip: {fileID: 8300000, guid: 3a71862446033cd41a3f7d4f687c2c01, type: 3}
